Library\Bee\artifacts\mvdfrm\UnityEngine.TestRunner.ref.dll_E55D0F7C63F01D9E.mvfrm
Library\Bee\artifacts\mvdfrm\UnityEditor.Graphs.dll_704A80881EF47D4B.mvfrm
Library\Bee\artifacts\mvdfrm\UnityEditor.CoreModule.dll_58280F0D70914C19.mvfrm
Library\Bee\artifacts\mvdfrm\UnityEditor.DeviceSimulatorModule.dll_DF037DCA04200BF8.mvfrm
Library\Bee\artifacts\mvdfrm\UnityEditor.DiagnosticsModule.dll_529E1EAAEF988046.mvfrm
Library\Bee\artifacts\mvdfrm\UnityEditor.dll_84019D5120AF422C.mvfrm
Library\Bee\artifacts\mvdfrm\UnityEditor.GraphViewModule.dll_875560CF7701575D.mvfrm
Library\Bee\artifacts\mvdfrm\UnityEditor.PackageManagerUIModule.dll_0E2A86B943B66435.mvfrm
Library\Bee\artifacts\mvdfrm\UnityEditor.QuickSearchModule.dll_DDAD9FB8486F7C9F.mvfrm
Library\Bee\artifacts\mvdfrm\UnityEditor.SceneTemplateModule.dll_3A16E7F4269B1500.mvfrm
Library\Bee\artifacts\mvdfrm\UnityEditor.TextCoreFontEngineModule.dll_B3824BD021BECD77.mvfrm
Library\Bee\artifacts\mvdfrm\UnityEditor.TextCoreTextEngineModule.dll_FB6A8241B1428695.mvfrm
Library\Bee\artifacts\mvdfrm\UnityEditor.UIBuilderModule.dll_DBDE0DEBE9B9D091.mvfrm
Library\Bee\artifacts\mvdfrm\UnityEditor.UIElementsModule.dll_54917DAEFE220EB5.mvfrm
Library\Bee\artifacts\mvdfrm\UnityEditor.UIElementsSamplesModule.dll_08C2FC66F839D508.mvfrm
Library\Bee\artifacts\mvdfrm\UnityEditor.UIServiceModule.dll_14D01F4ED2F120AB.mvfrm
Library\Bee\artifacts\mvdfrm\UnityEditor.UnityConnectModule.dll_EF70E99DC10B074F.mvfrm
Library\Bee\artifacts\mvdfrm\UnityEngine.AccessibilityModule.dll_6CBC538B27113C9D.mvfrm
Library\Bee\artifacts\mvdfrm\UnityEngine.AIModule.dll_ED7245D9525F114D.mvfrm
Library\Bee\artifacts\mvdfrm\UnityEngine.AndroidJNIModule.dll_D2DA668247417D8B.mvfrm
Library\Bee\artifacts\mvdfrm\UnityEngine.AnimationModule.dll_55DADCF8515E2C03.mvfrm
Library\Bee\artifacts\mvdfrm\UnityEngine.ARModule.dll_A6E50ADCAF7C7016.mvfrm
Library\Bee\artifacts\mvdfrm\UnityEngine.AssetBundleModule.dll_2196D2A9AAD63191.mvfrm
Library\Bee\artifacts\mvdfrm\UnityEngine.AudioModule.dll_827311923DF45435.mvfrm
Library\Bee\artifacts\mvdfrm\UnityEngine.ClothModule.dll_E95B6E8D18113319.mvfrm
Library\Bee\artifacts\mvdfrm\UnityEngine.ClusterInputModule.dll_6F0D5EB37292DA15.mvfrm
Library\Bee\artifacts\mvdfrm\UnityEngine.ClusterRendererModule.dll_E4B0403B73DB197C.mvfrm
Library\Bee\artifacts\mvdfrm\UnityEngine.CoreModule.dll_7B48E2601896B744.mvfrm
Library\Bee\artifacts\mvdfrm\UnityEngine.CrashReportingModule.dll_6D8F71D7A8C27D5C.mvfrm
Library\Bee\artifacts\mvdfrm\UnityEngine.DirectorModule.dll_91226F8759B2B661.mvfrm
Library\Bee\artifacts\mvdfrm\UnityEngine.dll_B6A5E4297F22CF11.mvfrm
Library\Bee\artifacts\mvdfrm\UnityEngine.DSPGraphModule.dll_9673D0F0CC138782.mvfrm
Library\Bee\artifacts\mvdfrm\UnityEngine.GameCenterModule.dll_FD27B09D0D826E7C.mvfrm
Library\Bee\artifacts\mvdfrm\UnityEngine.GIModule.dll_85AE8EE6EE0DF967.mvfrm
Library\Bee\artifacts\mvdfrm\UnityEngine.GridModule.dll_58B9FE4E30EB4D3B.mvfrm
Library\Bee\artifacts\mvdfrm\UnityEngine.HotReloadModule.dll_D7239AFE2C914785.mvfrm
Library\Bee\artifacts\mvdfrm\UnityEngine.ImageConversionModule.dll_50A23DEBF5FFD170.mvfrm
Library\Bee\artifacts\mvdfrm\UnityEngine.IMGUIModule.dll_BAD2B0F90425E816.mvfrm
Library\Bee\artifacts\mvdfrm\UnityEngine.InputLegacyModule.dll_B2DBEDC842C7E782.mvfrm
Library\Bee\artifacts\mvdfrm\UnityEngine.InputModule.dll_E8E8D942B42C78D9.mvfrm
Library\Bee\artifacts\mvdfrm\UnityEngine.JSONSerializeModule.dll_CCD3DCC7264C9D27.mvfrm
Library\Bee\artifacts\mvdfrm\UnityEngine.LocalizationModule.dll_AD5A29060A0ECD0E.mvfrm
Library\Bee\artifacts\mvdfrm\UnityEngine.NVIDIAModule.dll_08944E6695F73C30.mvfrm
Library\Bee\artifacts\mvdfrm\UnityEngine.ParticleSystemModule.dll_C0A1BB2416D408EA.mvfrm
Library\Bee\artifacts\mvdfrm\UnityEngine.PerformanceReportingModule.dll_F10B532A9FAE9003.mvfrm
Library\Bee\artifacts\mvdfrm\UnityEngine.Physics2DModule.dll_A280CCE8F25B2398.mvfrm
Library\Bee\artifacts\mvdfrm\UnityEngine.PhysicsModule.dll_B4C0E9115DF4C7A6.mvfrm
Library\Bee\artifacts\mvdfrm\UnityEngine.ProfilerModule.dll_C368A8BDF30C3D6E.mvfrm
Library\Bee\artifacts\mvdfrm\UnityEngine.RuntimeInitializeOnLoadManagerInitializerModule.dll_A800C50FE9FBC461.mvfrm
Library\Bee\artifacts\mvdfrm\UnityEngine.ScreenCaptureModule.dll_E6BB8A4C3AB8C989.mvfrm
Library\Bee\artifacts\mvdfrm\UnityEngine.SharedInternalsModule.dll_D4B37CC16D2DCCC0.mvfrm
Library\Bee\artifacts\mvdfrm\UnityEngine.SpriteMaskModule.dll_E654232D2EF203F6.mvfrm
Library\Bee\artifacts\mvdfrm\UnityEngine.SpriteShapeModule.dll_3AF800046078699B.mvfrm
Library\Bee\artifacts\mvdfrm\UnityEngine.StreamingModule.dll_0A6FCA48A0E5E341.mvfrm
Library\Bee\artifacts\mvdfrm\UnityEngine.SubstanceModule.dll_E71ADE91EC38E14F.mvfrm
Library\Bee\artifacts\mvdfrm\UnityEngine.SubsystemsModule.dll_5101898EFD39EC09.mvfrm
Library\Bee\artifacts\mvdfrm\UnityEngine.TerrainModule.dll_CF07648033B31094.mvfrm
Library\Bee\artifacts\mvdfrm\UnityEngine.TerrainPhysicsModule.dll_C11C63F730170377.mvfrm
Library\Bee\artifacts\mvdfrm\UnityEngine.TextCoreFontEngineModule.dll_31E1C72334BC8C42.mvfrm
Library\Bee\artifacts\mvdfrm\UnityEngine.TextCoreTextEngineModule.dll_79C9FD94C4404560.mvfrm
Library\Bee\artifacts\mvdfrm\UnityEngine.TextRenderingModule.dll_0FFAFC56F1F0497E.mvfrm
Library\Bee\artifacts\mvdfrm\UnityEngine.TilemapModule.dll_6E03CC014B6FF19D.mvfrm
Library\Bee\artifacts\mvdfrm\UnityEngine.TLSModule.dll_51AE9A549E93BEFA.mvfrm
Library\Bee\artifacts\mvdfrm\UnityEngine.UIElementsModule.dll_553FEAF700662800.mvfrm
Library\Bee\artifacts\mvdfrm\UnityEngine.UIElementsNativeModule.dll_58A43B4EB52ED457.mvfrm
Library\Bee\artifacts\mvdfrm\UnityEngine.UIModule.dll_E8E5E406AEA616F9.mvfrm
Library\Bee\artifacts\mvdfrm\UnityEngine.UmbraModule.dll_FD47BDAACB1AFFA8.mvfrm
Library\Bee\artifacts\mvdfrm\UnityEngine.UNETModule.dll_0DEF2A4965A5ACBD.mvfrm
Library\Bee\artifacts\mvdfrm\UnityEngine.UnityAnalyticsModule.dll_E0412BEDC2FB5AE6.mvfrm
Library\Bee\artifacts\mvdfrm\UnityEngine.UnityConnectModule.dll_DCD06DACBB9307FA.mvfrm
Library\Bee\artifacts\mvdfrm\UnityEngine.UnityCurlModule.dll_88F77E29C1721DF0.mvfrm
Library\Bee\artifacts\mvdfrm\UnityEngine.UnityTestProtocolModule.dll_C485B25952352A5E.mvfrm
Library\Bee\artifacts\mvdfrm\UnityEngine.UnityWebRequestAssetBundleModule.dll_7CBA6ACF82F23A37.mvfrm
Library\Bee\artifacts\mvdfrm\UnityEngine.UnityWebRequestAudioModule.dll_6907A70926195A9B.mvfrm
Library\Bee\artifacts\mvdfrm\UnityEngine.UnityWebRequestModule.dll_6241459600F46BEF.mvfrm
Library\Bee\artifacts\mvdfrm\UnityEngine.UnityWebRequestTextureModule.dll_012311547E9821D0.mvfrm
Library\Bee\artifacts\mvdfrm\UnityEngine.UnityWebRequestWWWModule.dll_448C42F0B40001CC.mvfrm
Library\Bee\artifacts\mvdfrm\UnityEngine.VehiclesModule.dll_08E56906D3DC85FC.mvfrm
Library\Bee\artifacts\mvdfrm\UnityEngine.VFXModule.dll_D28D32C375012867.mvfrm
Library\Bee\artifacts\mvdfrm\UnityEngine.VideoModule.dll_A77C95FD00866FDA.mvfrm
Library\Bee\artifacts\mvdfrm\UnityEngine.VirtualTexturingModule.dll_7D30EFBD8DDD54E2.mvfrm
Library\Bee\artifacts\mvdfrm\UnityEngine.VRModule.dll_3BB80A8C50609C71.mvfrm
Library\Bee\artifacts\mvdfrm\UnityEngine.WindModule.dll_F197BD88A9CD35AD.mvfrm
Library\Bee\artifacts\mvdfrm\UnityEngine.XRModule.dll_6E76CD90D99AE9CF.mvfrm
Library\Bee\artifacts\mvdfrm\UnityEditor.WebGL.Extensions.dll_E2EFE8F9BC6452A7.mvfrm
Library\Bee\artifacts\mvdfrm\UnityEditor.WindowsStandalone.Extensions.dll_44F47D7DE0A8B817.mvfrm